#
## Alias OBJ Material File
# Exported from SketchUp, (c) 2000-2012 Trimble Navigation Limited

newmtl FrontColor
Ka 0.000000 0.000000 0.000000
Kd 1.000000 1.000000 1.000000
Ks 0.330000 0.330000 0.330000

newmtl _1
Ka 0.000000 0.000000 0.000000
Kd 0.729412 0.725490 0.725490
Ks 0.330000 0.330000 0.330000
map_Kd _1.png

newmtl _1_1_
Ka 0.000000 0.000000 0.000000
Kd 0.729412 0.725490 0.725490
Ks 0.330000 0.330000 0.330000
map_Kd _1_1_.png

newmtl _1_2_
Ka 0.000000 0.000000 0.000000
Kd 0.729412 0.725490 0.725490
Ks 0.330000 0.330000 0.330000
map_Kd _1_2_.png

newmtl _1_3_
Ka 0.000000 0.000000 0.000000
Kd 0.729412 0.725490 0.725490
Ks 0.330000 0.330000 0.330000
map_Kd _1_3_.png

newmtl _1_4_
Ka 0.000000 0.000000 0.000000
Kd 0.729412 0.725490 0.725490
Ks 0.330000 0.330000 0.330000
map_Kd _1_4_.png

newmtl _1_5_
Ka 0.000000 0.000000 0.000000
Kd 0.729412 0.725490 0.725490
Ks 0.330000 0.330000 0.330000
map_Kd _1_5_.png

newmtl _1_6_
Ka 0.000000 0.000000 0.000000
Kd 0.729412 0.725490 0.725490
Ks 0.330000 0.330000 0.330000
map_Kd _1_6_.png

newmtl _1_7_
Ka 0.000000 0.000000 0.000000
Kd 0.729412 0.725490 0.725490
Ks 0.330000 0.330000 0.330000
map_Kd _1_7_.png

newmtl _1_8_
Ka 0.000000 0.000000 0.000000
Kd 0.729412 0.725490 0.725490
Ks 0.330000 0.330000 0.330000
map_Kd _1_8_.png

newmtl _1_9_
Ka 0.000000 0.000000 0.000000
Kd 0.729412 0.725490 0.725490
Ks 0.330000 0.330000 0.330000
map_Kd _1_9_.png

newmtl _1_10_
Ka 0.000000 0.000000 0.000000
Kd 0.729412 0.725490 0.725490
Ks 0.330000 0.330000 0.330000
map_Kd _1_10_.png

newmtl _1_11_
Ka 0.000000 0.000000 0.000000
Kd 0.729412 0.725490 0.725490
Ks 0.330000 0.330000 0.330000
map_Kd _1_11_.png

newmtl _1_12_
Ka 0.000000 0.000000 0.000000
Kd 0.729412 0.725490 0.725490
Ks 0.330000 0.330000 0.330000
map_Kd _1_12_.png

newmtl _1_13_
Ka 0.000000 0.000000 0.000000
Kd 0.729412 0.725490 0.725490
Ks 0.330000 0.330000 0.330000
map_Kd _1_13_.png

newmtl _1_14_
Ka 0.000000 0.000000 0.000000
Kd 0.729412 0.725490 0.725490
Ks 0.330000 0.330000 0.330000
map_Kd _1_14_.png

newmtl _1_15_
Ka 0.000000 0.000000 0.000000
Kd 0.729412 0.725490 0.725490
Ks 0.330000 0.330000 0.330000
map_Kd _1_15_.png

newmtl _1_16_
Ka 0.000000 0.000000 0.000000
Kd 0.729412 0.725490 0.725490
Ks 0.330000 0.330000 0.330000
map_Kd _1_16_.png

newmtl _DimGray_
Ka 0.000000 0.000000 0.000000
Kd 0.411765 0.411765 0.411765
Ks 0.330000 0.330000 0.330000

newmtl _2
Ka 0.000000 0.000000 0.000000
Kd 0.498039 0.337255 0.333333
Ks 0.330000 0.330000 0.330000
map_Kd _2.jpg

newmtl Fencing_Metal_Straight
Ka 0.000000 0.000000 0.000000
Kd 0.760784 0.764706 0.768627
Ks 0.330000 0.330000 0.330000
map_Kd Fencing_Metal_Straight.png

newmtl Fencing_Metal_Straight1_
Ka 0.000000 0.000000 0.000000
Kd 0.760784 0.764706 0.768627
Ks 0.330000 0.330000 0.330000
map_Kd Fencing_Metal_Straight1_.png

newmtl Fencing_Metal_Straight2_
Ka 0.000000 0.000000 0.000000
Kd 0.760784 0.764706 0.768627
Ks 0.330000 0.330000 0.330000
map_Kd Fencing_Metal_Straight2_.png

newmtl Fencing_Metal_Straight3_
Ka 0.000000 0.000000 0.000000
Kd 0.760784 0.764706 0.768627
Ks 0.330000 0.330000 0.330000
map_Kd Fencing_Metal_Straight3_.png

newmtl Fencing_Metal_Straight4_
Ka 0.000000 0.000000 0.000000
Kd 0.760784 0.764706 0.768627
Ks 0.330000 0.330000 0.330000
map_Kd Fencing_Metal_Straight4_.png

newmtl _3
Ka 0.000000 0.000000 0.000000
Kd 0.317647 0.254902 0.278431
Ks 0.330000 0.330000 0.330000
map_Kd _3.jpg

newmtl _3_1_
Ka 0.000000 0.000000 0.000000
Kd 0.317647 0.254902 0.278431
Ks 0.330000 0.330000 0.330000
map_Kd _3_1_.jpg

newmtl _3_2_
Ka 0.000000 0.000000 0.000000
Kd 0.317647 0.254902 0.278431
Ks 0.330000 0.330000 0.330000
map_Kd _3_2_.jpg

newmtl _3_3_
Ka 0.000000 0.000000 0.000000
Kd 0.317647 0.254902 0.278431
Ks 0.330000 0.330000 0.330000
map_Kd _3_3_.jpg

newmtl _3_4_
Ka 0.000000 0.000000 0.000000
Kd 0.317647 0.254902 0.278431
Ks 0.330000 0.330000 0.330000
map_Kd _3_4_.jpg

newmtl _3_5_
Ka 0.000000 0.000000 0.000000
Kd 0.317647 0.254902 0.278431
Ks 0.330000 0.330000 0.330000
map_Kd _3_5_.jpg

newmtl _3_6_
Ka 0.000000 0.000000 0.000000
Kd 0.317647 0.254902 0.278431
Ks 0.330000 0.330000 0.330000
map_Kd _3_6_.jpg

newmtl _3_7_
Ka 0.000000 0.000000 0.000000
Kd 0.317647 0.254902 0.278431
Ks 0.330000 0.330000 0.330000
map_Kd _3_7_.jpg

newmtl _3_8_
Ka 0.000000 0.000000 0.000000
Kd 0.317647 0.254902 0.278431
Ks 0.330000 0.330000 0.330000
map_Kd _3_8_.jpg

newmtl _3_9_
Ka 0.000000 0.000000 0.000000
Kd 0.317647 0.254902 0.278431
Ks 0.330000 0.330000 0.330000
map_Kd _3_9_.jpg

newmtl _3_10_
Ka 0.000000 0.000000 0.000000
Kd 0.317647 0.254902 0.278431
Ks 0.330000 0.330000 0.330000
map_Kd _3_10_.jpg

newmtl _3_11_
Ka 0.000000 0.000000 0.000000
Kd 0.317647 0.254902 0.278431
Ks 0.330000 0.330000 0.330000
map_Kd _3_11_.jpg

